Top50
…
I read initial ahref and top50 ahref

(I remove the 47th and 50th entry as they are both misspellings of youtube. They have low traffic compared to the others, so no real importance.)

ahref <- read_feather("../proc_data/ahref/ahref.f")

ahref %>% filter(cat == "10000+", volume < 10000) %>% 
    drop_na(difficulty) %>% 
    arrange(volume)

## # A tibble: 199,464 x 16
##    number keyword country difficulty volume   cpc clicks   cps return_rate
##     <dbl> <chr>   <chr>        <dbl>  <dbl> <dbl>  <dbl> <dbl>       <dbl>
##  1   7777 wooden~ us               1     10   1.6     NA    NA          NA
##  2   7781 school~ us              18     10  25       NA    NA          NA
##  3   7783 casino~ us              33     10  10       NA    NA          NA
##  4   7785 rummy ~ us              52     10  NA       NA    NA          NA
##  5   7796 emmy w~ us              73     10  NA       NA    NA          NA
##  6   7799 manufa~ us              56     10  NA       NA    NA          NA
##  7   7804 star b~ us              60     10   1.1     NA    NA          NA
##  8   7805 person~ us               0     10  NA       NA    NA          NA
##  9   7807 peopoel us              81     10   0       NA    NA          NA
## 10   7809 29 aug~ us               1     10   0       NA    NA          NA
## # ... with 199,454 more rows, and 7 more variables: parent_keyword <chr>,
## #   last_update <dttm>, serp_features <chr>, global_volume <dbl>, cat <chr>,
## #   difficulty_cat <fct>, log_volume <dbl>
…
